{
  "project_info": {
    "project_number": "114971787256",
    "firebase_url": "https://dtribeace.firebaseio.com",
    "project_id": "dtribeace",
    "storage_bucket": "dtribeace.appspot.com"
  },
  "client": [
    {
      "client_info": {
        "mobilesdk_app_id": "1:114971787256:android:a9f37871af58d79202e00d",
        "android_client_info": {
          "package_name": "com.acebed.aceroom"
        }
      },
      "oauth_client": [
        {
          "client_id": "114971787256-9e8v7gllg1rm25h0vjo4uu2mjasi3v2e.apps.googleusercontent.com",
          "client_type": 3
        }
      ],
      "api_key": [
        {
          "current_key": "AIzaSyB7K29fdpi_0VLry8Ps8e0vk5kQsq85gfk"
        }
      ],
      "services": {
        "appinvite_service": {
          "other_platform_oauth_client": [
            {
              "client_id": "114971787256-9e8v7gllg1rm25h0vjo4uu2mjasi3v2e.apps.googleusercontent.com",
              "client_type": 3
            }
          ]
        }
      }
    }
  ],
  "configuration_version": "1"
}