{
  "installed": {
    "client_id": "753073700092-c7m1nrrlo5big34keua5jb65k8cupbgs.apps.googleusercontent.com",
    "client_secret": "lCzdeZt1nYe-Lzk0CiGyjrp5",
    "redirect_uris": [],
    "auth_uri": "https://accounts.google.com/o/oauth2/auth",
    "token_uri": "https://accounts.google.com/o/oauth2/token"
  }
}